sep=;
Run time (s);Round;Exception;deadline;Agreement;Discounted;#agreeing;min.util.;max.util.;Dist. to Pareto;Dist. to Nash;Dist. to Social Welfare;Agent 1;Agent 2;Agent 3;Utility 1;Utility 2;Utility 3;Profile 1;Profile 2;Profile 3
36.099;5064;;50s;Yes;No;3;0.62190;1.00000;0.00000;0.36697;2.62190;MaxOops@801543727;Ngent@2080575635;Atlas3@670201083;1.0;0.6218965955784647;1.0;WindFarm_util1.xml;WindFarm_util2.xml;WindFarm_util3.xml
49.800;9710;;50s;Yes;No;3;0.59267;0.98000;0.04863;0.36974;2.53934;MaxOops@1350358023;Atlas3@1589325944;Ngent@1518649207;0.9666666666666668;0.592673648559522;0.98;WindFarm_util1.xml;WindFarm_util2.xml;WindFarm_util3.xml
49.950;3332;;50s;Yes;No;3;0.80000;0.91288;0.00000;0.00000;2.61288;Atlas3@139083517;MaxOops@109957508;Ngent@45241741;0.8000000000000002;0.9128781235485285;0.9;WindFarm_util1.xml;WindFarm_util2.xml;WindFarm_util3.xml
50.000;5392;;50s;No;No;1;0.00000;0.00000;1.46886;1.51107;0.00000;Atlas3@268224508;Ngent@20658291;MaxOops@84192396;0.0;0.0;0.0;WindFarm_util1.xml;WindFarm_util2.xml;WindFarm_util3.xml
30.495;6773;;50s;Yes;No;3;0.70902;0.98000;0.00000;0.22152;2.52235;Ngent@1500634072;Atlas3@1471557254;MaxOops@1401532584;0.8333333333333335;0.7090184720299363;0.98;WindFarm_util1.xml;WindFarm_util2.xml;WindFarm_util3.xml
49.934;2945;;50s;Yes;No;3;0.80000;0.91288;0.00000;0.00000;2.61288;Ngent@1969612515;MaxOops@2074215999;Atlas3@2141031827;0.8000000000000002;0.9128781235485285;0.9;WindFarm_util1.xml;WindFarm_util2.xml;WindFarm_util3.xml
27.580;533;;50s;Yes;No;3;0.62190;1.00000;0.00000;0.36697;2.62190;MaxOops@1891489032;Ngent@2121938287;ParsAgent@1327512607;1.0;0.6218965955784647;1.0;WindFarm_util1.xml;WindFarm_util2.xml;WindFarm_util3.xml
31.723;853;;50s;Yes;No;3;0.76667;0.95640;0.00000;0.05836;2.60307;MaxOops@1364177145;ParsAgent@1602770080;Ngent@1538775945;0.7666666666666668;0.9564005585221017;0.88;WindFarm_util1.xml;WindFarm_util2.xml;WindFarm_util3.xml
39.904;807;;50s;Yes;No;3;0.65092;0.93000;0.07665;0.26577;2.41425;ParsAgent@297544287;MaxOops@528209432;Ngent@457457967;0.8333333333333335;0.6509215764502859;0.93;WindFarm_util1.xml;WindFarm_util2.xml;WindFarm_util3.xml
50.000;995;;50s;No;No;1;0.00000;0.00000;1.46886;1.51107;0.00000;ParsAgent@1137864424;Ngent@1293256930;MaxOops@1227490712;0.0;0.0;0.0;WindFarm_util1.xml;WindFarm_util2.xml;WindFarm_util3.xml
41.722;1465;;50s;Yes;No;3;0.70902;0.98000;0.00000;0.22152;2.52235;Ngent@822661402;ParsAgent@1070541131;MaxOops@1005632106;0.8333333333333335;0.7090184720299363;0.98;WindFarm_util1.xml;WindFarm_util2.xml;WindFarm_util3.xml
49.971;1336;;50s;Yes;No;3;0.59275;1.00000;0.07275;0.34194;2.45942;Ngent@1702558226;MaxOops@1807550669;ParsAgent@1870827874;0.8666666666666668;0.592750655063847;1.0;WindFarm_util1.xml;WindFarm_util2.xml;WindFarm_util3.xml
49.983;1353;;50s;Yes;No;3;0.80000;0.91288;0.00000;0.00000;2.61288;MaxOops@1673691609;Ngent@1829069777;RandomDance@1526983165;0.8000000000000002;0.9128781235485285;0.9;WindFarm_util1.xml;WindFarm_util2.xml;WindFarm_util3.xml
49.945;5007;;50s;Yes;No;3;0.59267;0.98000;0.04863;0.36974;2.53934;MaxOops@1849004830;RandomDance@1626497192;Ngent@1691220078;0.9666666666666668;0.592673648559522;0.98;WindFarm_util1.xml;WindFarm_util2.xml;WindFarm_util3.xml
49.726;909;;50s;Yes;No;3;0.79005;0.90000;0.11865;0.12283;2.49005;RandomDance@980658552;MaxOops@884228166;Ngent@814465544;0.8000000000000002;0.7900504896247923;0.9;WindFarm_util1.xml;WindFarm_util2.xml;WindFarm_util3.xml
28.803;3869;;50s;Yes;No;3;0.62190;1.00000;0.00000;0.36697;2.62190;RandomDance@1152699828;Ngent@1313646276;MaxOops@1769313497;1.0;0.6218965955784647;1.0;WindFarm_util1.xml;WindFarm_util2.xml;WindFarm_util3.xml
49.970;8160;;50s;Yes;No;3;0.34710;1.00000;0.30544;0.57841;2.21376;Ngent@1193059375;RandomDance@1239106236;MaxOops@1306840927;0.8666666666666668;0.34709538721637434;1.0;WindFarm_util1.xml;WindFarm_util2.xml;WindFarm_util3.xml
49.942;2611;;50s;Yes;No;3;0.80000;0.91288;0.00000;0.00000;2.61288;Ngent@1089438342;MaxOops@1311270123;RandomDance@1243081206;0.8000000000000002;0.9128781235485285;0.9;WindFarm_util1.xml;WindFarm_util2.xml;WindFarm_util3.xml
49.879;5874;;50s;Yes;No;3;0.66542;0.98000;0.00000;0.30889;2.61209;MaxOops@1382122367;Atlas3@1554413379;ParsAgent@1486481423;0.9666666666666668;0.6654190305520379;0.98;WindFarm_util1.xml;WindFarm_util2.xml;WindFarm_util3.xml
41.572;1789;;50s;Yes;No;3;0.70902;0.98000;0.00000;0.22152;2.52235;MaxOops@1934546130;ParsAgent@2106139851;Atlas3@2042019746;0.8333333333333335;0.7090184720299363;0.98;WindFarm_util1.xml;WindFarm_util2.xml;WindFarm_util3.xml
49.594;927;;50s;Yes;No;3;0.79005;0.90000;0.11865;0.12283;2.49005;ParsAgent@678608443;MaxOops@649413957;Atlas3@579523915;0.8000000000000002;0.7900504896247923;0.9;WindFarm_util1.xml;WindFarm_util2.xml;WindFarm_util3.xml
21.034;340;;50s;Yes;No;3;0.62190;1.00000;0.00000;0.36697;2.62190;ParsAgent@1854659375;Atlas3@1615603854;MaxOops@1685303391;1.0;0.6218965955784647;1.0;WindFarm_util1.xml;WindFarm_util2.xml;WindFarm_util3.xml
49.979;4074;;50s;Yes;No;3;0.70902;0.98000;0.00000;0.22152;2.52235;Atlas3@1370394520;ParsAgent@1600748509;MaxOops@1532421352;0.8333333333333335;0.7090184720299363;0.98;WindFarm_util1.xml;WindFarm_util2.xml;WindFarm_util3.xml
49.908;2033;;50s;Yes;No;3;0.66667;0.95648;0.00000;0.14028;2.52314;Atlas3@1641194414;MaxOops@1863668196;ParsAgent@1797966046;0.6666666666666667;0.9564775650264269;0.9;WindFarm_util1.xml;WindFarm_util2.xml;WindFarm_util3.xml
49.881;1846;;50s;Yes;No;3;0.24540;1.00000;0.37980;0.69859;2.19540;MaxOops@785249146;Atlas3@537532627;RandomDance@607492106;1.0;0.24539905015882574;0.9500000000000001;WindFarm_util1.xml;WindFarm_util2.xml;WindFarm_util3.xml
49.984;8196;;50s;Yes;No;3;0.66667;0.95648;0.00000;0.14028;2.52314;MaxOops@1408909600;RandomDance@1564321071;Atlas3@1493314128;0.6666666666666667;0.9564775650264269;0.9;WindFarm_util1.xml;WindFarm_util2.xml;WindFarm_util3.xml
49.707;1093;;50s;Yes;No;3;0.79005;0.90000;0.11865;0.12283;2.49005;RandomDance@206214475;MaxOops@42822322;Atlas3@112393787;0.8000000000000002;0.7900504896247923;0.9;WindFarm_util1.xml;WindFarm_util2.xml;WindFarm_util3.xml
49.995;13215;;50s;Yes;No;3;0.66667;0.95648;0.00000;0.14028;2.52314;RandomDance@1327914257;Atlas3@1172190817;MaxOops@14463166;0.6666666666666667;0.9564775650264269;0.9;WindFarm_util1.xml;WindFarm_util2.xml;WindFarm_util3.xml
49.989;16546;;50s;Yes;No;3;0.59267;0.98000;0.04863;0.36974;2.53934;Atlas3@386264354;RandomDance@432144818;MaxOops@503154258;0.9666666666666668;0.592673648559522;0.98;WindFarm_util1.xml;WindFarm_util2.xml;WindFarm_util3.xml
49.915;870;;50s;Yes;No;3;0.66667;0.90000;0.12283;0.15510;2.40032;Atlas3@313399806;MaxOops@476702171;RandomDance@408318606;0.6666666666666667;0.8336499311026905;0.9;WindFarm_util1.xml;WindFarm_util2.xml;WindFarm_util3.xml
41.852;1115;;50s;Yes;No;3;0.70902;0.98000;0.00000;0.22152;2.52235;MaxOops@1780732140;ParsAgent@1692677080;RandomDance@1625013148;0.8333333333333335;0.7090184720299363;0.98;WindFarm_util1.xml;WindFarm_util2.xml;WindFarm_util3.xml
49.963;2066;;50s;Yes;No;3;0.54915;1.00000;0.07275;0.42696;2.54915;MaxOops@760584688;RandomDance@596795946;ParsAgent@665711232;1.0;0.5491512135859488;1.0;WindFarm_util1.xml;WindFarm_util2.xml;WindFarm_util3.xml
49.694;701;;50s;Yes;No;3;0.79005;0.90000;0.11865;0.12283;2.49005;RandomDance@167129990;MaxOops@120704200;ParsAgent@51271926;0.8000000000000002;0.7900504896247923;0.9;WindFarm_util1.xml;WindFarm_util2.xml;WindFarm_util3.xml
50.000;1633;;50s;No;No;1;0.00000;0.00000;1.46886;1.51107;0.00000;RandomDance@1932711485;ParsAgent@839900166;MaxOops@1712439051;0.0;0.0;0.0;WindFarm_util1.xml;WindFarm_util2.xml;WindFarm_util3.xml
50.000;5108;;50s;No;No;2;0.00000;0.00000;1.46886;1.51107;0.00000;ParsAgent@2039630808;RandomDance@2002102938;MaxOops@1936335016;0.0;0.0;0.0;WindFarm_util1.xml;WindFarm_util2.xml;WindFarm_util3.xml
49.922;560;;50s;Yes;No;3;0.76739;0.90000;0.10449;0.14549;2.46739;ParsAgent@1746989645;MaxOops@1726415161;RandomDance@1658362173;0.8000000000000002;0.7673873595634967;0.9;WindFarm_util1.xml;WindFarm_util2.xml;WindFarm_util3.xml
42.529;1802;;50s;Yes;No;3;0.80000;0.91288;0.00000;0.00000;2.61288;Ngent@647982684;Atlas3@676889855;ParsAgent@744949036;0.8000000000000002;0.9128781235485285;0.9;WindFarm_util1.xml;WindFarm_util2.xml;WindFarm_util3.xml
41.769;1511;;50s;Yes;No;3;0.70902;0.98000;0.00000;0.22152;2.52235;Ngent@479312079;ParsAgent@307647789;Atlas3@376034239;0.8333333333333335;0.7090184720299363;0.98;WindFarm_util1.xml;WindFarm_util2.xml;WindFarm_util3.xml
48.153;5718;;50s;Yes;No;3;0.80000;0.91288;0.00000;0.00000;2.61288;ParsAgent@93739019;Ngent@189904585;Atlas3@258880379;0.8000000000000002;0.9128781235485285;0.9;WindFarm_util1.xml;WindFarm_util2.xml;WindFarm_util3.xml
49.529;7930;;50s;Yes;No;3;0.70902;0.98000;0.00000;0.22152;2.52235;ParsAgent@1381827765;Atlas3@1553657998;Ngent@1487237061;0.8333333333333335;0.7090184720299363;0.98;WindFarm_util1.xml;WindFarm_util2.xml;WindFarm_util3.xml
49.824;2674;;50s;Yes;No;3;0.70902;0.98000;0.00000;0.22152;2.52235;Atlas3@945225651;ParsAgent@915478217;Ngent@850302147;0.8333333333333335;0.7090184720299363;0.98;WindFarm_util1.xml;WindFarm_util2.xml;WindFarm_util3.xml
49.891;2870;;50s;Yes;No;3;0.66667;0.75857;0.25999;0.26125;2.16355;Atlas3@1721778488;Ngent@1751626652;ParsAgent@1817717320;0.6666666666666669;0.7383145014278492;0.7585714285714287;WindFarm_util1.xml;WindFarm_util2.xml;WindFarm_util3.xml
49.863;3718;;50s;Yes;No;3;0.80000;0.91288;0.00000;0.00000;2.61288;Ngent@826130940;Atlas3@1073359275;RandomDance@1002809996;0.8000000000000002;0.9128781235485285;0.9;WindFarm_util1.xml;WindFarm_util2.xml;WindFarm_util3.xml
49.946;7649;;50s;Yes;No;3;0.59275;1.00000;0.07275;0.34194;2.45942;Ngent@615570845;RandomDance@712451963;Atlas3@776517357;0.8666666666666668;0.592750655063847;1.0;WindFarm_util1.xml;WindFarm_util2.xml;WindFarm_util3.xml
49.801;1576;;50s;Yes;No;3;0.62190;1.00000;0.00000;0.36697;2.62190;RandomDance@1583730961;Ngent@1352807597;Atlas3@1419623009;1.0;0.6218965955784647;1.0;WindFarm_util1.xml;WindFarm_util2.xml;WindFarm_util3.xml
49.870;3397;;50s;Yes;No;3;0.54915;1.00000;0.07275;0.42696;2.54915;RandomDance@634667257;Atlas3@722713139;Ngent@791423881;1.0;0.5491512135859488;1.0;WindFarm_util1.xml;WindFarm_util2.xml;WindFarm_util3.xml
49.976;9622;;50s;Yes;No;3;0.70902;0.98000;0.00000;0.22152;2.52235;Atlas3@408694470;RandomDance@379311037;Ngent@312755638;0.8333333333333335;0.7090184720299363;0.98;WindFarm_util1.xml;WindFarm_util2.xml;WindFarm_util3.xml
43.957;3550;;50s;Yes;No;3;0.66550;1.00000;0.00000;0.27503;2.53216;Atlas3@242386379;Ngent@11893365;RandomDance@76213947;0.8666666666666668;0.6654960370563631;1.0;WindFarm_util1.xml;WindFarm_util2.xml;WindFarm_util3.xml
41.570;1137;;50s;Yes;No;3;0.70902;0.98000;0.00000;0.22152;2.52235;Ngent@619872616;ParsAgent@708144006;RandomDance@772467224;0.8333333333333335;0.7090184720299363;0.98;WindFarm_util1.xml;WindFarm_util2.xml;WindFarm_util3.xml
49.948;1710;;50s;Yes;No;3;0.59275;1.00000;0.07275;0.34194;2.45942;Ngent@945431677;RandomDance@916315398;ParsAgent@849497869;0.8666666666666668;0.592750655063847;1.0;WindFarm_util1.xml;WindFarm_util2.xml;WindFarm_util3.xml
44.408;1203;;50s;Yes;No;3;0.66542;0.98000;0.00000;0.30889;2.61209;RandomDance@1402116814;Ngent@1565880012;ParsAgent@1500180926;0.9666666666666668;0.6654190305520379;0.98;WindFarm_util1.xml;WindFarm_util2.xml;WindFarm_util3.xml
49.923;1012;;50s;Yes;No;3;0.80000;0.91288;0.00000;0.00000;2.61288;RandomDance@94424757;ParsAgent@191311985;Ngent@257467845;0.8000000000000002;0.9128781235485285;0.9;WindFarm_util1.xml;WindFarm_util2.xml;WindFarm_util3.xml
49.901;2931;;50s;Yes;No;3;0.63627;0.98000;0.04863;0.28986;2.44961;ParsAgent@1107941010;RandomDance@1288581283;Ngent@1223802338;0.8333333333333335;0.6362730900374203;0.98;WindFarm_util1.xml;WindFarm_util2.xml;WindFarm_util3.xml
44.434;534;;50s;Yes;No;3;0.59267;0.98000;0.04863;0.36974;2.53934;ParsAgent@1351022949;Ngent@1581325573;RandomDance@1518244373;0.9666666666666668;0.592673648559522;0.98;WindFarm_util1.xml;WindFarm_util2.xml;WindFarm_util3.xml
41.565;3185;;50s;Yes;No;3;0.70902;0.98000;0.00000;0.22152;2.52235;Atlas3@1665042577;ParsAgent@1845066374;RandomDance@1774642145;0.8333333333333335;0.7090184720299363;0.98;WindFarm_util1.xml;WindFarm_util2.xml;WindFarm_util3.xml
36.441;573;;50s;Yes;No;3;0.63333;1.00000;0.00000;0.18912;2.51333;Atlas3@1419482323;RandomDance@1516003376;ParsAgent@1583611811;0.6333333333333334;1.0;0.88;WindFarm_util1.xml;WindFarm_util2.xml;WindFarm_util3.xml
49.878;1090;;50s;Yes;No;3;0.44080;0.96667;0.19700;0.50154;2.33746;RandomDance@256312628;Atlas3@25225900;ParsAgent@96431684;0.9666666666666668;0.44079756684596044;0.93;WindFarm_util1.xml;WindFarm_util2.xml;WindFarm_util3.xml
49.868;4292;;50s;Yes;No;3;0.39333;1.00000;0.31890;0.47526;2.06333;RandomDance@480853228;ParsAgent@309248265;Atlas3@374429596;0.39333333333333337;1.0;0.6699999999999999;WindFarm_util1.xml;WindFarm_util2.xml;WindFarm_util3.xml
40.202;1351;;50s;Yes;No;3;0.76667;0.95640;0.00000;0.05836;2.60307;ParsAgent@1003666119;RandomDance@890586061;Atlas3@824889783;0.7666666666666668;0.9564005585221017;0.88;WindFarm_util1.xml;WindFarm_util2.xml;WindFarm_util3.xml
49.882;935;;50s;Yes;No;3;0.63627;0.98000;0.04863;0.28986;2.44961;ParsAgent@1706334906;Atlas3@1802729596;RandomDance@1867313610;0.8333333333333335;0.6362730900374203;0.98;WindFarm_util1.xml;WindFarm_util2.xml;WindFarm_util3.xml
